<svg width="80" height="81" viewBox="0 0 80 81" fill="none" xmlns="http://www.w3.org/2000/svg">
<circle cx="40" cy="40.0195" r="40" fill="#FFF1F6"/>
<path d="M16.9694 54.3778L40.0019 14.4844L63.0344 54.3778H16.9694Z" stroke="#FF1167"/>
<path d="M23.5455 60.3691L40 31.8691L56.4545 60.3691H23.5455Z" fill="#FFF1F6" stroke="#FF1167"/>
</svg>
